…
reader <- MZPeakFile$new("small.chunked.mzpeak")
```

## Metadata Access
The metadata tables are loaded and exposed as `arrow::Table` objects which are compatible with `dplyr`

```R
require(dplyr)

reader$spectra |> select("id", "index") |> collect()
```
```R
# A tibble: 48 × 2
   id                                          index
   <chr>                                       <int>
 1 controllerType=0 controllerNumber=1 scan=1      0
 2 controllerType=0 controllerNumber=1 scan=2      1
 3 controllerType=0 controllerNumber=1 scan=3      2
 4 controllerType=0 controllerNumber=1 scan=4      3
 5 controllerType=0 controllerNumber=1 scan=5      4
 6 controllerType=0 controllerNumber=1 scan=6      5
 7 controllerType=0 controllerNumber=1 scan=7      6
 8 controllerType=0 controllerNumber=1 scan=8      7
 9 controllerType=0 controllerNumber=1 scan=9      8
10 controllerType=0 controllerNumber=1 scan=10     9
# ℹ 38 more rows
```
…
